{
	"name": "Anagolay Docker images",
	// "image": "mcr.microsoft.com/vscode/devcontainers/base:bullseye",
	"build": {
		"dockerfile": "../workspaces/full/with-microsoft.Dockerfile"
	},
	"extensions": [
		"foxundermoon.shell-format",
		"be5invis.toml",
		"streetsidesoftware.code-spell-checker",
		"mhutchie.git-graph",
		"vscode-icons-team.vscode-icons",
		"ms-azuretools.vscode-docker"
	],
	"features": {
		"docker-from-docker": {
			"version": "latest",
			"moby": true
		}
	},
	"remoteUser": "vscode",
}